{
	"info": {
		"_postman_id": "b77c1f62-66ab-4ff6-a9e0-62e4b39d6345",
		"name": "go-kumparan",
		"schema": "https://schema.getpostman.com/json/collection/v2.1.0/collection.json"
	},
	"item": [
		{
			"name": "List Article",
			"request": {
				"method": "GET",
				"header": [],
				"url": {
					"raw": "localhost:8080/article",
					"host": [
						"localhost"
					],
					"port": "8080",
					"path": [
						"article"
					]
				}
			},
			"response": []
		},
		{
			"name": "Store Article",
			"request": {
				"method": "GET",
				"header": []
			},
			"response": []
		}
	]
}