module kumparan

go 1.17

require github.com/labstack/echo v3.3.10+incompatible

require (
	github.com/cespare/xxhash/v2 v2.1.2 // indirect
	github.com/dgryski/go-rendezvous v0.0.0-20200823014737-9f7001d12a5f // indirect
	github.com/ghodss/yaml v1.0.0 // indirect
	github.com/go-redis/redis/v8 v8.11.5 // indirect
	github.com/go-sql-driver/mysql v1.6.0 // indirect
	github.com/labstack/echo/v4 v4.7.2 // indirect
	github.com/labstack/gommon v0.3.1 // indirect
	github.com/mattn/go-colorable v0.1.11 // indirect
	github.com/mattn/go-isatty v0.0.14 // indirect
	github.com/tkanos/gonfig v0.0.0-20210106201359-53e13348de2f // indirect
	github.com/valyala/bytebufferpool v1.0.0 // indirect
	github.com/valyala/fasttemplate v1.2.1 // indirect
	golang.org/x/crypto v0.0.0-20210817164053-32db794688a5 // indirect
	golang.org/x/net v0.0.0-20211015210444-4f30a5c0130f // indirect
	golang.org/x/sys v0.0.0-20211216021012-1d35b9e2eb4e // indirect
	golang.org/x/text v0.3.7 // indirect
	gopkg.in/yaml.v2 v2.4.0 // indirect
)
